Xilinx Zynq MP First Stage Boot Loader 
Release 2017.2   Sep 22 2017  -  15:32:02
Reset Mode	:	System Reset
Platform: Silicon (4.0), Cluster ID 0x80000000
Running on A53-0 (64-bit) Processor, Device Name: XCZU9EG
Board Configuration successful 
Processor Initialization Done 
================= In Stage 2 ============ 
SD1 with level shifter Boot Mode 
SD: rc= 0
File name is BOOT.BIN
Multiboot Reg : 0x0 
Image Header Table Offset 0x8C0 
*****Image Header Table Details******** 
Boot Gen Ver: 0x1020000 
No of Partitions: 0x4 
Partition Header Address: 0x440 
Partition Present Device: 0x0 
Initialization Success 
======= In Stage 3, Partition No:1 ======= 
UnEncrypted data Length: 0x1800 
Data word offset: 0x1800 
Total Data word length: 0x1800 
Destination Load Address: 0xFFFEA000 
Execution Address: 0xFFFEA000 
Data word offset: 0xF590 
Partition Attributes: 0x117 
Partition 1 Load Success 
======= In Stage 3, Partition No:2 ======= 
UnEncrypted data Length: 0x8 
Data word offset: 0x8 
Total Data word length: 0x8 
Destination Load Address: 0xFFFF0000 
Execution Address: 0x0 
Data word offset: 0x10D90 
Partition Attributes: 0x117 
Partition 2 Load Success 
======= In Stage 3, Partition No:3 ======= 
UnEncrypted data Length: 0x2D3FC 
Data word offset: 0x2D3FC 
Total Data word length: 0x2D3FC 
Destination Load Address: 0x8000000 
Execution Address: 0x8000000 
Data word offset: 0x10DA0 
Partition Attributes: 0x114 
Partition 3 Load Success 
All Partitions Loaded 
================= In Stage 4 ============ 
Protection configuration applied
Running =Q%  ATF running on XCZU9EG/silicon v4/RTL5.1 at 0xfffea000, with PMU firmware
NOTICE:  BL31: Secure code at 0x0
NOTICE:  BL31: Non secure code at 0x8000000
NOTICE:  BL31: v1.3(release):0d9d51a
NOTICE:  BL31: Built : 10:21:05, Sep 13 2017
PMUFW:	v0.3


U-Boot 2017.01-dirty (Nov 14 2017 - 09:32:25 +0100) Xilinx ZynqMP ZCU102 rev1.0

I2C:   ready
DRAM:  4 GiB
EL Level:	EL2
Chip ID:	xczu9eg
MMC:   sdhci@ff170000: 0 (SD)
reading uboot.env

** Unable to read "uboot.env" from mmc0:1 **
Using default environment

In:    serial@ff000000
Out:   serial@ff000000
Err:   serial@ff000000
Bootmode: LVL_SHFT_SD_MODE1
Net:   ZYNQ GEM: ff0e0000, phyaddr c, interface rgmii-id

Warning: ethernet@ff0e0000 using MAC address from ROM
eth0: ethernet@ff0e0000
Hit any key to stop autoboot:  2  1  0 
reading system.dtb
37723 bytes read in 15 ms (2.4 MiB/s)
reading Image
15809024 bytes read in 1043 ms (14.5 MiB/s)
## Flattened Device Tree blob at 04000000
   Booting using the fdt blob at 0x4000000
   Loading Device Tree to 000000000fff3000, end 000000000ffff35a ... OK

Starting kernel ...

[    0.000000] Booting Linux on physical CPU 0x0
[    0.000000] Linux version 4.9.0 (limiloiko@limiloiko-ubuntu) (gcc version 6.2.1 20161114 (Linaro GCC Snapshot 6.2-2016.11) ) #2 SMP Wed Apr 11 17:54:07 CEST 2018
[    0.000000] Boot CPU: AArch64 Processor [410fd034]
[    0.000000] earlycon: cdns0 at MMIO 0x00000000ff000000 (options '115200n8')
[    0.000000] bootconsole [cdns0] enabled
[    0.000000] efi: Getting EFI parameters from FDT:
[    0.000000] efi: UEFI not found.
[    0.000000] cma: Reserved 256 MiB at 0x0000000070000000
[    0.000000] psci: probing for conduit method from DT.
[    0.000000] psci: PSCIv1.0 detected in firmware.
[    0.000000] psci: Using standard PSCI v0.2 function IDs
[    0.000000] psci: MIGRATE_INFO_TYPE not supported.
[    0.000000] percpu: Embedded 22 pages/cpu @ffffffc87ff62000 s51608 r8192 d30312 u90112
[    0.000000] Detected VIPT I-cache on CPU0
[    0.000000] CPU features: enabling workaround for ARM erratum 845719
[    0.000000] Built 1 zonelists in Zone order, mobility grouping on.  Total pages: 1034240
[    0.000000] Kernel command line: console=ttyPS0,115200 root=/dev/mmcblk0p2 rw earlyprintk uio_pdrv_genirq.of_id=generic-uio rootdelay=3 earlycon clk_ignore_unused
[    0.000000] PID hash table entries: 4096 (order: 3, 32768 bytes)
[    0.000000] Dentry cache hash table entries: 524288 (order: 10, 4194304 bytes)
[    0.000000] Inode-cache hash table entries: 262144 (order: 9, 2097152 bytes)
[    0.000000] software IO TLB [mem 0x6bfff000-0x6ffff000] (64MB) mapped at [ffffffc06bfff000-ffffffc06fffefff]
[    0.000000] Memory: 3785968K/4194304K available (10300K kernel code, 1102K rwdata, 3004K rodata, 960K init, 591K bss, 146192K reserved, 262144K cma-reserved)
[    0.000000] Virtual kernel memory layout:
[    0.000000]     modules : 0xffffff8000000000 - 0xffffff8008000000   (   128 MB)
[    0.000000]     vmalloc : 0xffffff8008000000 - 0xffffffbebfff0000   (   250 GB)
[    0.000000]       .text : 0xffffff8008080000 - 0xffffff8008a90000   ( 10304 KB)
[    0.000000]     .rodata : 0xffffff8008a90000 - 0xffffff8008d90000   (  3072 KB)
[    0.000000]       .init : 0xffffff8008d90000 - 0xffffff8008e80000   (   960 KB)
[    0.000000]       .data : 0xffffff8008e80000 - 0xffffff8008f93a00   (  1103 KB)
[    0.000000]        .bss : 0xffffff8008f93a00 - 0xffffff80090276cc   (   592 KB)
[    0.000000]     fixed   : 0xffffffbefe7fd000 - 0xffffffbefec00000   (  4108 KB)
[    0.000000]     PCI I/O : 0xffffffbefee00000 - 0xffffffbeffe00000   (    16 MB)
[    0.000000]     vmemmap : 0xffffffbf00000000 - 0xffffffc000000000   (     4 GB maximum)
[    0.000000]               0xffffffbf00000000 - 0xffffffbf1dc00000   (   476 MB actual)
[    0.000000]     memory  : 0xffffffc000000000 - 0xffffffc880000000   ( 34816 MB)
[    0.000000] Hierarchical RCU implementation.
[    0.000000] 	Build-time adjustment of leaf fanout to 64.
[    0.000000] 	RCU restricting CPUs from NR_CPUS=8 to nr_cpu_ids=4.
[    0.000000] RCU: Adjusting geometry for rcu_fanout_leaf=64, nr_cpu_ids=4
[    0.000000] NR_IRQS:64 nr_irqs:64 0
[    0.000000] GIC: Adjusting CPU interface base to 0x00000000f902f000
[    0.000000] GIC: Using split EOI/Deactivate mode
[    0.000000] arm_arch_timer: Architected cp15 timer(s) running at 99.99MHz (phys).
[    0.000000] clocksource: arch_sys_counter: mask: 0xffffffffffffff max_cycles: 0x171015c90f, max_idle_ns: 440795203080 ns
[    0.000003] sched_clock: 56 bits at 99MHz, resolution 10ns, wraps every 4398046511101ns
[    0.008308] Console: colour dummy device 80x25
[    0.012580] Calibrating delay loop (skipped), value calculated using timer frequency.. 199.99 BogoMIPS (lpj=399996)
[    0.022940] pid_max: default: 32768 minimum: 301
[    0.027624] Mount-cache hash table entries: 8192 (order: 4, 65536 bytes)
[    0.034192] Mountpoint-cache hash table entries: 8192 (order: 4, 65536 bytes)
[    0.041683] ftrace: allocating 34854 entries in 137 pages
[    0.090847] ASID allocator initialised with 65536 entries
[    0.096759] zynqmp_plat_init Power management API v0.3
[    0.101776] EFI services will not be available.
[    0.117892] Detected VIPT I-cache on CPU1
[    0.117930] CPU1: Booted secondary processor [410fd034]
[    0.134789] Detected VIPT I-cache on CPU2
[    0.134809] CPU2: Booted secondary processor [410fd034]
[    0.151692] Detected VIPT I-cache on CPU3
[    0.151711] CPU3: Booted secondary processor [410fd034]
[    0.151750] Brought up 4 CPUs
[    0.182032] SMP: Total of 4 processors activated.
[    0.186709] CPU features: detected feature: 32-bit EL0 Support
[    0.192506] CPU: All CPU(s) started at EL2
[    0.196578] alternatives: patching kernel code
[    0.201698] devtmpfs: initialized
[    0.210584] clocksource: jiffies: mask: 0xffffffff max_cycles: 0xffffffff, max_idle_ns: 7645041785100000 ns
[    0.226118] xor: measuring software checksum speed
[    0.270781]    8regs     :  2292.000 MB/sec
[    0.310813]    8regs_prefetch:  2041.000 MB/sec
[    0.355187]    32regs    :  2811.000 MB/sec
[    0.395221]    32regs_prefetch:  2371.000 MB/sec
[    0.399647] xor: using function: 32regs (2811.000 MB/sec)
[    0.405076] pinctrl core: initialized pinctrl subsystem
[    0.410718] NET: Registered protocol family 16
[    0.431001] cpuidle: using governor menu
[    0.435079] Failed to initialise IOMMU /amba/smmu@fd800000
[    0.440564] vdso: 2 pages (1 code @ ffffff8008a97000, 1 data @ ffffff8008e84000)
[    0.447764] hw-breakpoint: found 6 breakpoint and 4 watchpoint registers.
[    0.454990] DMA: preallocated 256 KiB pool for atomic allocations
[    2.259435] reset_zynqmp reset-controller: Xilinx zynqmp reset driver probed
[    2.267197] ARM CCI_400_r1 PMU driver probed[    2.274800] zynqmp-pinctrl ff180000.pinctrl: zynqmp pinctrl initialized
[    2.301474] HugeTLB registered 2 MB page size, pre-allocated 0 pages
[    2.375724] raid6: int64x1  gen()   403 MB/s
[    2.447802] raid6: int64x1  xor()   437 MB/s
[    2.519835] raid6: int64x2  gen()   661 MB/s
[    2.591873] raid6: int64x2  xor()   594 MB/s
[    2.663972] raid6: int64x4  gen()   980 MB/s
[    2.736003] raid6: int64x4  xor()   734 MB/s
[    2.808043] raid6: int64x8  gen()  1146 MB/s
[    2.880098] raid6: int64x8  xor()   744 MB/s
[    2.952183] raid6: neonx1   gen()   716 MB/s
[    3.024210] raid6: neonx1   xor()   754 MB/s
[    3.096261] raid6: neonx2   gen()  1153 MB/s
[    3.168314] raid6: neonx2   xor()  1025 MB/s
[    3.240370] raid6: neonx4   gen()  1503 MB/s
[    3.312424] raid6: neonx4   xor()  1175 MB/s
[    3.384480] raid6: neonx8   gen()  1586 MB/s
[    3.456533] raid6: neonx8   xor()  1220 MB/s
[    3.460610] raid6: using algorithm neonx8 gen() 1586 MB/s
[    3.465971] raid6: .... xor() 1220 MB/s, rmw enabled
[    3.470902] raid6: using intx1 recovery algorithm
[    3.604933] SCSI subsystem initialized
[    3.608665] usbcore: registered new interface driver usbfs
[    3.613990] usbcore: registered new interface driver hub
[    3.619272] usbcore: registered new device driver usb
[    3.624314] media: Linux media interface: v0.10
[    3.628773] Linux video capture interface: v2.00
[    3.633357] pps_core: LinuxPPS API ver. 1 registered
[    3.638265] pps_core: Software ver. 5.3.6 - Copyright 2005-2007 Rodolfo Giometti <giometti@linux.it>
[    3.647357] PTP clock support registered
[    3.651255] EDAC MC: Ver: 3.0.0
[    3.654611] FPGA manager framework
[    3.657940] fpga-region fpga-full: FPGA Region probed
[    3.662933] Advanced Linux Sound Architecture Driver Initialized.
[    3.669173] Bluetooth: Core ver 2.22
[    3.672575] NET: Registered protocol family 31
[    3.676975] Bluetooth: HCI device and connection manager initialized
[    3.683292] Bluetooth: HCI socket layer initialized
[    3.688134] Bluetooth: L2CAP socket layer initialized
[    3.693165] Bluetooth: SCO socket layer initialized
[    3.698602] clocksource: Switched to clocksource arch_sys_counter
[    3.735562] VFS: Disk quotas dquot_6.6.0
[    3.739348] VFS: Dquot-cache hash table entries: 512 (order 0, 4096 bytes)
[    3.751274] NET: Registered protocol family 2
[    3.755772] TCP established hash table entries: 32768 (order: 6, 262144 bytes)
[    3.762995] TCP bind hash table entries: 32768 (order: 7, 524288 bytes)
[    3.769836] TCP: Hash tables configured (established 32768 bind 32768)
[    3.776203] UDP hash table entries: 2048 (order: 4, 65536 bytes)
[    3.782205] UDP-Lite hash table entries: 2048 (order: 4, 65536 bytes)
[    3.788691] NET: Registered protocol family 1
[    3.793065] RPC: Registered named UNIX socket transport module.
[    3.798797] RPC: Registered udp transport module.
[    3.803465] RPC: Registered tcp transport module.
[    3.808137] RPC: Registered tcp NFSv4.1 backchannel transport module.
[    3.814971] hw perfevents: enabled with armv8_pmuv3 PMU driver, 7 counters available
[    3.823249] futex hash table entries: 1024 (order: 5, 131072 bytes)
[    3.829366] audit: initializing netlink subsys (disabled)
[    3.834707] audit: type=2000 audit(3.716:1): initialized
[    3.840460] workingset: timestamp_bits=62 max_order=20 bucket_order=0
[    3.847358] NFS: Registering the id_resolver key type
[    3.852234] Key type id_resolver registered
[    3.856370] Key type id_legacy registered
[    3.860354] nfs4filelayout_init: NFSv4 File Layout Driver Registering...
[    3.867022] jffs2: version 2.2. (NAND) (SUMMARY)  © 2001-2006 Red Hat, Inc.
[    3.878442] Block layer SCSI generic (bsg) driver version 0.4 loaded (major 247)
[    3.885651] io scheduler noop registered
[    3.889534] io scheduler deadline registered
[    3.893777] io scheduler cfq registered (default)
[    3.922339] nwl-pcie fd0e0000.pcie: Link is DOWN
[    3.926795] OF: PCI: host bridge /amba/pcie@fd0e0000 ranges:
[    3.932400] OF: PCI:   MEM 0xe0000000..0xefffffff -> 0xe0000000
[    3.938272] OF: PCI:   MEM 0x600000000..0x7ffffffff -> 0x600000000
[    3.944514] nwl-pcie fd0e0000.pcie: PCI host bridge to bus 0000:00
[    3.950557] pci_bus 0000:00: root bus resource [bus 00-ff]
[    3.956003] pci_bus 0000:00: root bus resource [mem 0xe0000000-0xefffffff]
[    3.962836] pci_bus 0000:00: root bus resource [mem 0x600000000-0x7ffffffff pref]
[    3.970590] pci 0000:00:00.0: PCI bridge to [bus 01-0c]
[    3.994217] xilinx-dpdma fd4c0000.dma: Xilinx DPDMA engine is probed
[    4.037783] Write failed gate address:1000f02
[    4.042034] xilinx-zynqmp-dma fd500000.dma: ZynqMP DMA driver Probe success
[    4.049012] xilinx-zynqmp-dma fd510000.dma: ZynqMP DMA driver Probe success
[    4.055926] xilinx-zynqmp-dma fd520000.dma: ZynqMP DMA driver Probe success
[    4.062849] xilinx-zynqmp-dma fd530000.dma: ZynqMP DMA driver Probe success
[    4.069766] xilinx-zynqmp-dma fd540000.dma: ZynqMP DMA driver Probe success
[    4.076689] xilinx-zynqmp-dma fd550000.dma: ZynqMP DMA driver Probe success
[    4.083606] xilinx-zynqmp-dma fd560000.dma: ZynqMP DMA driver Probe success
[    4.090534] xilinx-zynqmp-dma fd570000.dma: ZynqMP DMA driver Probe success
[    4.115631] xilinx-zynqmp-dma ffa80000.dma: ZynqMP DMA driver Probe success
[    4.122536] xilinx-zynqmp-dma ffa90000.dma: ZynqMP DMA driver Probe success
[    4.129452] xilinx-zynqmp-dma ffaa0000.dma: ZynqMP DMA driver Probe success
[    4.136378] xilinx-zynqmp-dma ffab0000.dma: ZynqMP DMA driver Probe success
[    4.143294] xilinx-zynqmp-dma ffac0000.dma: ZynqMP DMA driver Probe success
[    4.150215] xilinx-zynqmp-dma ffad0000.dma: ZynqMP DMA driver Probe success
[    4.157134] xilinx-zynqmp-dma ffae0000.dma: ZynqMP DMA driver Probe success
[    4.164056] xilinx-zynqmp-dma ffaf0000.dma: ZynqMP DMA driver Probe success
[    4.171004] zynqmp_pm firmware: Power management API v0.3
[    4.205360] Serial: 8250/16550 driver, 4 ports, IRQ sharing disabled
[    4.272998] ff000000.serial: ttyPS0 at MMIO 0xff000000 (irq = 46, base_baud = 6249999) is a xuartps   4.281940] console [ttyPS0] enabled
[    4.281940] console [ttyPS0] enabled
[    4.288901] bootconsole [cdns0] disabled
[    4.288901] bootconsole [cdns0] disabled
[    4.364088] ff010000.serial: ttyPS1 at MMIO 0xff010000 (irq = 47, base_baud = 6249999) is a xuartps
[    4.373238] [drm] Initialized
[    4.376457] [drm] load() is defered & will be called again
[    4.382375] xilinx-drm-dp-sub fd4aa000.dp_sub: Xilinx DisplayPort Subsystem is probed
[    4.390280] Unable to detect cache hierarchy from DT for CPU 0
[    4.400768] brd: module loaded
[    4.406554] loop: module loaded
[    4.416010] ahci-ceva fd0c0000.ahci: couldn't get PHY in node ahci: -517
[    4.422757] mtdoops: mtd device (mtddev=name/number) must be supplied
[    4.453264] m25p80 spi0.0: found n25q512a, expected m25p80
[    4.458793] m25p80 spi0.0: n25q512a (131072 Kbytes)
[    4.463606] 4 ofpart partitions found on MTD device spi0.0
[    4.469055] Creating 4 MTD partitions on "spi0.0":
[    4.473832] 0x000000000000-0x000000100000 : "qspi-fsbl-uboot"
[    4.480076] 0x000000100000-0x000000600000 : "qspi-linux"
[    4.485783] 0x000000600000-0x000000620000 : "qspi-device-tree"
[    4.491999] 0x000000620000-0x000000c00000 : "qspi-rootfs"
[    4.498601] libphy: Fixed MDIO Bus: probed
[    4.503633] tun: Universal TUN/TAP device driver, 1.6
[    4.508604] tun: (C) 1999-2004 Max Krasnyansky <maxk@qualcomm.com>
[    4.514871] CAN device driver interface
[    4.913374] macb ff0e0000.ethernet: Not enabling partial store and forward
[    4.920589] libphy: MACB_mii_bus: probed
[    4.933038] macb ff0e0000.ethernet eth0: Cadence GEM rev 0x50070106 at 0xff0e0000 irq 31 (00:0a:35:03:77:52)
[    4.942786] TI DP83867 ff0e0000.etherne:0c: attached PHY driver [TI DP83867] (mii_bus:phy_addr=ff0e0000.etherne:0c, irq=-1)
[    4.954398] usbcore: registered new interface driver asix
[    4.959757] usbcore: registered new interface driver ax88179_178a
[    4.965814] usbcore: registered new interface driver cdc_ether
[    4.971631] usbcore: registered new interface driver net1080
[    4.977272] usbcore: registered new interface driver cdc_subset
[    4.983174] usbcore: registered new interface driver zaurus
[    4.988741] usbcore: registered new interface driver cdc_ncm
[    5.335391] usbcore: registered new interface driver uas
[    5.340651] usbcore: registered new interface driver usb-storage
[    5.346895] mousedev: PS/2 mouse device common for all mice
[    5.352833] rtc_zynqmp ffa60000.rtc: rtc core: registered ffa60000.rtc as rtc0
[    5.360002] i2c /dev entries driver
[    5.558276] usbcore: registered new interface driver uvcvideo
[    5.563935] USB Video Class driver (1.1.1)
[    5.581972] cdns-wdt fd4d0000.watchdog: Xilinx Watchdog Timer at ffffff80091b3000 with timeout 10s
[    5.591014] Bluetooth: HCI UART driver ver 2.3
[    5.595401] Bluetooth: HCI UART protocol H4 registered
[    5.600495] Bluetooth: HCI UART protocol BCSP registered
[    5.605790] Bluetooth: HCI UART protocol LL registered
[    5.610911] Bluetooth: HCI UART protocol ATH3K registered
[    5.616291] Bluetooth: HCI UART protocol Three-wire (H5) registered
[    5.622587] Bluetooth: HCI UART protocol Intel registered
[    5.627962] Bluetooth: HCI UART protocol Broadcom registered
[    5.633567] Bluetooth: HCI UART protocol QCA registered
[    5.638807] usbcore: registered new interface driver bcm203x
[    5.644450] usbcore: registered new interface driver bpa10x
[    5.650003] usbcore: registered new interface driver bfusb
[    5.655470] usbcore: registered new interface driver btusb
[    5.660909] Bluetooth: Generic Bluetooth SDIO driver ver 0.1
[    5.666609] usbcore: registered new interface driver ath3k
[    5.672140] EDAC MC: ECC not enabled
[    5.675794] EDAC DEVICE0: Giving out device to module zynqmp-ocm-edac controller zynqmp_ocm: DEV ff960000.memory-controller (INTERRUPT)
[    5.688781] sdhci: Secure Digital Host Controller Interface driver
[    5.694875] sdhci: Copyright(c) Pierre Ossman
[    5.699214] sdhci-pltfm: SDHCI platform and OF driver helper
[    6.078593] mmc0: SDHCI controller on ff170000.sdhci [ff170000.sdhci] using ADMA 64-bit
[    6.086781] ledtrig-cpu: registered to indicate activity on CPUs
[    6.092818] usbcore: registered new interface driver usbhid
[    6.098307] usbhid: USB HID core driver
[    6.158751] fpga_manager fpga0: Xilinx ZynqMP FPGA Manager registered
[    6.167654] xilinx-dp-snd-pcm dp_snd_pcm0: Xilinx DisplayPort Sound PCM probed
[    6.174823] xilinx-dp-snd-pcm dp_snd_pcm1: Xilinx DisplayPort Sound PCM probed
[    6.212054] PLL: shutdown
[    6.539560] Write failed to divider address:fd1a007c
[    6.609912] PLL: enable
[    6.665181] xilinx-dp-snd-codec dp_snd_codec0: Xilinx DisplayPort Sound Codec probed
[    6.673152] xilinx-dp-snd-card dp_snd_card: xilinx-dp-snd-codec-dai <-> xilinx-dp-snd-codec-dai mapping ok
[    6.682826] xilinx-dp-snd-card dp_snd_card: xilinx-dp-snd-codec-dai <-> xilinx-dp-snd-codec-dai mapping ok
[    6.692758] xilinx-dp-snd-card dp_snd_card: Xilinx DisplayPort Sound Card probed
[    6.700169] pktgen: Packet Generator for packet performance testing. Version: 2.75
[    7.043250] Netfilter messages via NETLINK v0.30.
[    7.047976] ip_tables: (C) 2000-2006 Netfilter Core Team
[    7.053253] Initializing XFRM netlink socket
[    7.081937] NET: Registered protocol family 10
[    7.086721] ip6_tables: (C) 2000-2006 Netfilter Core Team
[    7.092081] sit: IPv6, IPv4 and MPLS over IPv4 tunneling driver
[    7.098284] NET: Registered protocol family 17
[    7.102658] NET: Registered protocol family 15
[    7.107085] bridge: filtering via arp/ip/ip6tables is no longer available by default. Update your scripts to load br_netfilter if you need this.
[    7.120008] Ebtables v2.0 registered
[    7.123602] can: controller area network core (rev 20120528 abi 9)
[    7.129753] NET: Registered protocol family 29
[    7.134160] can: raw protocol (rev 20120528)
[    7.138406] can: broadcast manager protocol (rev 20161123 t)
[    7.144051] can: netlink gateway (rev 20130117) max_hops=1
[    7.225046] Bluetooth: RFCOMM TTY layer initialized
[    7.229840] Bluetooth: RFCOMM socket layer initialized
[    7.234963] Bluetooth: RFCOMM ver 1.11
[    7.238691] Bluetooth: BNEP (Ethernet Emulation) ver 1.3
[    7.243981] Bluetooth: BNEP filters: protocol multicast
[    7.249192] Bluetooth: BNEP socket layer initialized
[    7.254140] Bluetooth: HIDP (Human Interface Emulation) ver 1.2
[    7.260043] Bluetooth: HIDP socket layer initialized
[    7.265158] 9pnet: Installing 9P2000 support
[    7.269360] Key type dns_resolver registered
[    7.271686] mmc0: new high speed SDHC card at address aaaa
[    7.271933] mmcblk0: mmc0:aaaa SL16G 14.8 GiB 
[    7.283783]  mmcblk0: p1 p2
[    7.283949] registered taskstats version 1
[    7.290769] Btrfs loaded, crc32c=crc32c-generic
[    7.451475] PLL: shutdown
[    7.457481] [drm] load() is defered & will be called again
[    7.473954] xilinx-psgtr fd400000.zynqmp_phy: Lane:1 type:8 protocol:4 pll_locked:yes
[    7.481926] xilinx-drm-dp fd4a0000.dp: device found, version 4.010
[    7.488028] xilinx-drm-dp fd4a0000.dp: Display Port, version 1.0200 (tx)
[    7.524310] xilinx-psgtr fd400000.zynqmp_phy: Lane:3 type:3 protocol:2 pll_locked:yes
[    7.542164] ahci-ceva fd0c0000.ahci: AHCI 0001.0301 32 slots 2 ports 6 Gbps 0x3 impl platform mode
[    7.551038] ahci-ceva fd0c0000.ahci: flags: 64bit ncq sntf pm clo only pmp fbs pio slum part ccc sds apst 
[    7.561397] scsi host0: ahci-ceva
[    7.564847] scsi host1: ahci-ceva
[    7.568211] ata1: SATA max UDMA/133 mmio [mem 0xfd0c0000-0xfd0c1fff] port 0x100 irq 44
[    7.576042] ata2: SATA max UDMA/133 mmio [mem 0xfd0c0000-0xfd0c1fff] port 0x180 irq 44
[    7.896786] ata1: SATA link down (SStatus 0 SControl 330)
[    7.902118] ata2: SATA link down (SStatus 0 SControl 330)
[    7.911505] xilinx-psgtr fd400000.zynqmp_phy: Lane:2 type:0 protocol:3 pll_locked:yes
[    7.942762] xhci-hcd xhci-hcd.0.auto: xHCI Host Controller
[    7.948177] xhci-hcd xhci-hcd.0.auto: new USB bus registered, assigned bus number 1
[    7.956030] xhci-hcd xhci-hcd.0.auto: hcc params 0x0238f625 hci version 0x100 quirks 0x02010810
[    7.964669] xhci-hcd xhci-hcd.0.auto: irq 226, io mem 0xfe200000
[    7.970751] usb usb1: New USB device found, idVendor=1d6b, idProduct=0002
[    7.977456] usb usb1: New USB device strings: Mfr=3, Product=2, SerialNumber=1
[    7.984660] usb usb1: Product: xHCI Host Controller
[    7.989518] usb usb1: Manufacturer: Linux 4.9.0 xhci-hcd
[    7.994812] usb usb1: SerialNumber: xhci-hcd.0.auto
[    8.024076] hub 1-0:1.0: USB hub found
[    8.027766] hub 1-0:1.0: 1 port detected
[    8.031814] xhci-hcd xhci-hcd.0.auto: xHCI Host Controller
[    8.037219] xhci-hcd xhci-hcd.0.auto: new USB bus registered, assigned bus number 2
[    8.044979] usb usb2: New USB device found, idVendor=1d6b, idProduct=0003
[    8.051688] usb usb2: New USB device strings: Mfr=3, Product=2, SerialNumber=1
[    8.058887] usb usb2: Product: xHCI Host Controller
[    8.063748] usb usb2: Manufacturer: Linux 4.9.0 xhci-hcd
[    8.069042] usb usb2: SerialNumber: xhci-hcd.0.auto
[    8.074178] hub 2-0:1.0: USB hub found
[    8.077863] hub 2-0:1.0: 1 port detected
[    8.161367] cdns-i2c ff020000.i2c: 400 kHz mmio ff020000 irq 33
[    8.167449] 1-0020 supply vcc not found, using dummy regulator
[    8.173901] GPIO line 322 (sel0) hogged as output/low
[    8.179063] GPIO line 323 (sel1) hogged as output/high
[    8.184316] GPIO line 324 (sel2) hogged as output/high
[    8.189568] GPIO line 325 (sel3) hogged as output/high
[    8.194740] pca953x 1-0020: interrupt support not compiled in
[    8.200479] 1-0021 supply vcc not found, using dummy regulator
[    8.206831] pca953x 1-0021: interrupt support not compiled in
[    8.213318] ina2xx 2-0040: power monitor ina226 (Rshunt = 5000 uOhm)
[    8.220009] ina2xx 2-0041: power monitor ina226 (Rshunt = 5000 uOhm)
[    8.226688] ina2xx 2-0042: power monitor ina226 (Rshunt = 5000 uOhm)
[    8.233378] ina2xx 2-0043: power monitor ina226 (Rshunt = 5000 uOhm)
[    8.240064] ina2xx 2-0044: power monitor ina226 (Rshunt = 5000 uOhm)
[    8.246752] ina2xx 2-0045: power monitor ina226 (Rshunt = 5000 uOhm)
[    8.253429] ina2xx 2-0046: power monitor ina226 (Rshunt = 5000 uOhm)
[    8.260121] ina2xx 2-0047: power monitor ina226 (Rshunt = 5000 uOhm)
[    8.266816] ina2xx 2-004a: power monitor ina226 (Rshunt = 5000 uOhm)
[    8.273501] ina2xx 2-004b: power monitor ina226 (Rshunt = 5000 uOhm)
[    8.279787] i2c i2c-1: Added multiplexed i2c bus 2
[    8.285169] ina2xx 3-0040: power monitor ina226 (Rshunt = 2000 uOhm)
[    8.291855] ina2xx 3-0041: power monitor ina226 (Rshunt = 5000 uOhm)
[    8.298536] ina2xx 3-0042: power monitor ina226 (Rshunt = 5000 uOhm)
[    8.305221] ina2xx 3-0043: power monitor ina226 (Rshunt = 5000 uOhm)
[    8.311908] ina2xx 3-0044: power monitor ina226 (Rshunt = 5000 uOhm)
[    8.318605] ina2xx 3-0045: power monitor ina226 (Rshunt = 5000 uOhm)
[    8.325284] ina2xx 3-0046: power monitor ina226 (Rshunt = 5000 uOhm)
[    8.331978] ina2xx 3-0047: power monitor ina226 (Rshunt = 5000 uOhm)
[    8.338263] i2c i2c-1: Added multiplexed i2c bus 3
[    8.359897] random: fast init done
[    8.376715] i2c i2c-1: Added multiplexed i2c bus 4
[    8.381571] i2c i2c-1: Added multiplexed i2c bus 5
[    8.386278] pca954x 1-0075: registered 4 multiplexed busses for I2C mux pca9544
[    8.474128] cdns-i2c ff030000.i2c: 400 kHz mmio ff030000 irq 34
[    8.480894] at24 7-0054: 1024 byte 24c08 EEPROM, writable, 1 bytes/write
[    8.487526] i2c i2c-6: Added multiplexed i2c bus 7
[    8.492488] i2c i2c-6: Added multiplexed i2c bus 8
[    8.503617] si570 9-005d: registered, current frequency 300000000 Hz
[    8.509906] i2c i2c-6: Added multiplexed i2c bus 9
[    8.532985] si570 10-005d: registered, current frequency 148500000 Hz
[    8.539355] i2c i2c-6: Added multiplexed i2c bus 10
[    8.544410] i2c i2c-6: Added multiplexed i2c bus 11
[    8.549342] i2c i2c-6: Added multiplexed i2c bus 12
[    8.554270] i2c i2c-6: Added multiplexed i2c bus 13
[    8.559197] i2c i2c-6: Added multiplexed i2c bus 14
[    8.563994] pca954x 6-0074: registered 8 multiplexed busses for I2C switch pca9548
[    8.571861] i2c i2c-6: Added multiplexed i2c bus 15
[    8.576796] i2c i2c-6: Added multiplexed i2c bus 16
[    8.581733] i2c i2c-6: Added multiplexed i2c bus 17
[    8.586987] i2c i2c-6: Added multiplexed i2c bus 18
[    8.591921] i2c i2c-6: Added multiplexed i2c bus 19
[    8.596861] i2c i2c-6: Added multiplexed i2c bus 20
[    8.601800] i2c i2c-6: Added multiplexed i2c bus 21
[    8.606737] i2c i2c-6: Added multiplexed i2c bus 22
[    8.611536] pca954x 6-0075: registered 8 multiplexed busses for I2C switch pca9548
[    8.624886] PLL: enable
[    8.697816] PLL: shutdown
[    8.703916] OF: graph: no port node found in /xilinx_drm
[    8.709140] [drm] Supports vblank timestamp caching Rev 2 (21.10.2013).
[    8.715734] [drm] No driver support for vblank timestamp query.
[    8.721654] xilinx-drm xilinx_drm: No connectors reported connected with modes
[    8.728846] [drm] Cannot find any crtc or sizes - going 1024x768
[    8.740425] Console: switching to colour frame buffer device 128x48
[    8.751161] xilinx-drm xilinx_drm: fb0:  frame buffer device
[    8.770593] [drm] Initialized xilinx_drm 1.0.0 20130509 on minor 0
[    8.777041] input: gpio-keys as /devices/platform/gpio-keys/input/input0
[    8.783837] rtc_zynqmp ffa60000.rtc: setting system clock to 2018-04-12 08:54:51 UTC (1523523291)
[    8.792631] of_cfs_init
[    8.795073] of_cfs_init: OK
[    8.797947] clk: Not disabling unused clocks
[    8.802193] ALSA device list:
[    8.805079]   #0: DisplayPort monitor
[    8.809050] Waiting 3 sec before mounting root device...
[   11.862568] EXT4-fs (mmcblk0p2): couldn't mount as ext3 due to feature incompatibilities
[   12.464301] EXT4-fs (mmcblk0p2): mounted filesystem with ordered data mode. Opts: (null)
[   12.472322] VFS: Mounted root (ext4 filesystem) on device 179:2.
[   12.691407] devtmpfs: mounted
[   12.694499] Freeing unused kernel memory: 960K (ffffffc000d90000 - ffffffc000e80000)

Welcome to [1mDebian GNU/Linux 9 (stretch)[0m!

NetworkManager-wait-online.service: Cannot add dependency job, ignoring: Unit NetworkManager-wait-online.service is masked.
[[0;32m  OK  [0m] Started Dispatch Password Requests to Console Directory Watch.
[[0;32m  OK  [0m] Listening on Journal Audit Socket.
[[0;32m  OK  [0m] Listening on udev Control Socket.
[[0;32m  OK  [0m] Created slice User and Session Slice.
[[0;32m  OK  [0m] Reached target Remote File Systems.
[[0;32m  OK  [0m] Created slice System Slice.
[[0;32m  OK  [0m] Created slice system-getty.slice.
dev-hugepages.mount: Couldn't determine result for ConditionVirtualization=!private-users, assuming failed: No such file or directory
         Mounting POSIX Message Queue File System...
[[0;32m  OK  [0m] Reached target Slices.
[[0;32m  OK  [0m] Created slice system-serial\x2dgetty.slice.
[[0;32m  OK  [0m] Listening on Journal Socket.
         Starting Remount Root and Kernel File Systems...
[[0;32m  OK  [0m] Listening on Network Service Netlink Socket.
[[0;32m  OK  [0m] Listening on Journal Socket (/dev/log).
[[0;32m  OK  [0m] Listening on udev Kernel Socket.
         Starting Set the console keyboard layout...
[[0;32m  OK  [0m] Listening on Syslog Socket.
         Starting Journal Service...
         Mounting Debug File System...
         Starting Nameserver information manager...
[[0;32m  OK  [0m] Listening on /dev/initctl Compatibility Named Pipe.
[[0;32m  OK  [0m] Started Forward Password Requests to Wall Directory Watch.
[[0;32m  OK  [0m] Reached target Encrypted Volumes.
[[0;32m  OK  [0m] Reached target Swap.
         Starting Load Kernel Modules...
         Starting Create Static Device Nodes in /dev...
[[0;32m  OK  [0m] Started Remount Root and Kernel File Systems.
         Starting udev Coldplug all Devices...
         Starting Load/Save Random Seed...
[[0;32m  OK  [0m] Started Load Kernel Modules.
         Mounting Configuration File System...
         Starting Apply Kernel Variables...
[[0;32m  OK  [0m] Started Apply Kernel Variables.
[[0;32m  OK  [0m] Started Journal Service.
[[0;32m  OK  [0m] Mounted Configuration File System.
[[0;32m  OK  [0m] Mounted POSIX Message Queue File System.
[[0;32m  OK  [0m] Mounted Debug File System.
[[0;32m  OK  [0m] Started Create Static Device Nodes in /dev.
[[0;32m  OK  [0m] Started Load/Save Random Seed.
[[0;32m  OK  [0m] Started Nameserver information manager.
         Starting udev Kernel Device Manager...
         Starting Flush Journal to Persistent Storage...
[   15.876224] systemd-journald[1740]: Received request to flush runtime journal from PID 1
[[0;32m  OK  [0m] Started Flush Journal to Persistent Storage.
[[0;32m  OK  [0m] Started udev Kernel Device Manager.
[[0;32m  OK  [0m] Started Set the console keyboard layout.
[[0;32m  OK  [0m] Reached target Local File Systems (Pre).
[[0;32m  OK  [0m] Reached target Local File Systems.
         Starting Set console font and keymap...
         Starting Create Volatile Files and Directories...
         Starting Raise network interfaces...
         Starting Network Service...
[[0;32m  OK  [0m] Started Set console font and keymap.
[[0;32m  OK  [0m] Started Create Volatile Files and Directories.
         Starting Network Time Synchronization...
         Starting Update UTMP about System Boot/Shutdown...
[[0;32m  OK  [0m] Started Network Service.
[[0;32m  OK  [0m] Started udev Coldplug all Devices.
[[0;32m  OK  [0m] Found device /dev/ttyPS0.
[[0;32m  OK  [0m] Started Update UTMP about System Boot/Shutdown.
[[0;32m  OK  [0m] Reached target Sound Card.
[[0;32m  OK  [0m] Started Network Time Synchronization.
[[0;32m  OK  [0m] Listening on Load/Save RF Kill Switch Status /dev/rfkill Watch.
[[0;32m  OK  [0m] Reached target System Initialization.
[[0;32m  OK  [0m] Started ACPI Events Check.
[[0;32m  OK  [0m] Reached target Paths.
[[0;32m  OK  [0m] Listening on D-Bus System Message Bus Socket.
[[0;32m  OK  [0m] Started Daily Cleanup of Temporary Directories.
[[0;32m  OK  [0m] Listening on ACPID Listen Socket.
[[0;32m  OK  [0m] Listening on OpenBSD Secure Shell server socket.
[[0;32m  OK  [0m] Reached target Sockets.
[[0;32m  OK  [0m] Reached target Basic System.
[[0;32m  OK  [0m] Started ACPI event daemon.
         Starting Initialize hardware monitoring sensors...
         Starting System Logging Service...
         Starting Modem Manager...
         Starting RealtimeKit Scheduling Policy Service...
         Starting Restore /etc/resolv.conf i…fore the ppp link was shut down...
         Starting Provide limited super user privileges to specific users...
         Starting Login Service...
         Starting LSB: Load kernel modules needed to enable cpufreq scaling...
         Starting Save/Restore Sound Card State...
[[0;32m  OK  [0m] Started Regular background program processing daemon.
[[0;32m  OK  [0m] Started D-Bus System Message Bus.
         Starting Network Manager...
         Starting WPA supplicant...
[[0;32m  OK  [0m] Reached target System Time Synchronized.
[[0;32m  OK  [0m] Started System Logging Service.
[[0;1;31mFAILED[0m] Failed to start RealtimeKit Scheduling Policy Service.
See 'systemctl status rtkit-daemon.service' for details.
[[0;32m  OK  [0m] Started Restore /etc/resolv.conf if…before the ppp link was shut down.
[[0;32m  OK  [0m] Started Provide limited super user privileges to specific users.
[[0;32m  OK  [0m] Started Save/Restore Sound Card State.
[[0;32m  OK  [0m] Started Initialize hardware monitoring sensors.
[[0;32m  OK  [0m] Started Raise network interfaces.
[[0;32m  OK  [0m] Started LSB: Load kernel modules needed to enable cpufreq scaling.
[[0;32m  OK  [0m] Started WPA supplicant.
[[0;32m  OK  [0m] Started Login Service.
         Starting Authorization Manager...
         Starting LSB: set CPUFreq kernel parameters...
[[0;32m  OK  [0m] Started LSB: set CPUFreq kernel parameters.
[[0;32m  OK  [0m] Started Authorization Manager.
[[0;32m  OK  [0m] Started Network Manager.
[[0;32m  OK  [0m] Reached target Network.
[[0;32m  OK  [0m] Reached target Network is Online.
         Starting LSB: exim Mail Transport Agent...
[[0;32m  OK  [0m] Started Daily apt download activities.
[[0;32m  OK  [0m] Started Daily apt upgrade and clean activities.
[[0;32m  OK  [0m] Reached target Timers.
         Starting LSB: Advanced IEEE 802.11 management daemon...
         Starting /etc/rc.local Compatibility...
         Starting Network Name Resolution...
         Starting Permit User Sessions...
[[0;32m  OK  [0m] Started LSB: Advanced IEEE 802.11 management daemon.
[[0;32m  OK  [0m] Started /etc/rc.local Compatibility.
[[0;32m  OK  [0m] Started Permit User Sessions.
[[0;32m  OK  [0m] Started Modem Manager.
         Starting Daily apt download activities...
         Starting Network Manager Script Dispatcher Service...
[[0;32m  OK  [0m] Started Getty on tty1.
[[0;32m  OK  [0m] Started Serial Getty on ttyPS0.
[[0;32m  OK  [0m] Reached target Login Prompts.
[[0;32m  OK  [0m] Started Network Manager Script Dispatcher Service.
         Starting Hostname Service...
[[0;1;31mFAILED[0m] Failed to start Hostname Service.
See 'systemctl status systemd-hostnamed.service' for details.
[[0;32m  OK  [0m] Started Network Name Resolution.
[[0;32m  OK  [0m] Started LSB: exim Mail Transport Agent.
[[0;32m  OK  [0m] Reached target Multi-User System.
[[0;32m  OK  [0m] Reached target Graphical Interface.
         Starting Update UTMP about System Runlevel Changes...
[[0;32m  OK  [0m] Started Update UTMP about System Runlevel Changes.

Debian GNU/Linux 9 linaro-developer ttyPS0

linaro-developer login: root (automatic login)

Last login: Tue Apr 10 09:24:37 UTC 2018 on ttyPS0
Linux linaro-developer 4.9.0 #2 SMP Wed Apr 11 17:54:07 CEST 2018 aarch64

The programs included with the Debian GNU/Linux system are free software;
the exact distribution terms for each program are described in the
individual files in /usr/share/doc/*/copyright.

Debian GNU/Linux comes with ABSOLUTELY NO WARRANTY, to the extent
permitted by applicable law.
root@linaro-developer:~# ç[K
root@linaro-developer:~# 
root@linaro-developer:~# poweroff
[[0;32m  OK  [0m] Stopp         Stopping Save/Restore Sound Card State...
[[0;32m  OK  [0m] Stopped Session 1 of user root.
[[0;32m  OK  [0m] Removed slice User Slice of root.
         Stopping Permit User Sessions...
         Stopping Login Service...
[[0;32m  OK  [0m] Stopped Login Service.
[[0;32m  OK  [0m] Stopped Permit User Sessions.
[[0;32m  OK  [0m] Stopped target Network.
         Stopping Raise network interfaces...
         Stopping Network Manager...
         Stopping WPA supplicant...
         Stopping Network Service...
[[0;32m  OK  [0m] Stopped target Remote File Systems.
[[0;32m  OK  [0m] Stopped Network Service.
[[0;32m  OK  [0m] Stopped WPA supplicant.
[[0;32m  OK  [0m] Stopped Raise network interfaces.
[   50.507068] IPv6: ADDRCONF(NETDEV_UP): eth0: link is not ready
[   50.580015] IPv6: ADDRCONF(NETDEV_UP): eth0: link is not ready
[[0;32m  OK  [0m] Stopped Network Manager.
         Stopping D-Bus System Message Bus...
[[0;32m  OK  [0m] Stopped D-Bus System Message Bus.
[[0;32m  OK  [0m] Stopped target Basic System.
[[0;32m  OK  [0m] Stopped target Slices.
[[0;32m  OK  [0m] Removed slice User and Session Slice.
[[0;32m  OK  [0m] Stopped target Paths.
[[0;32m  OK  [0m] Stopped ACPI Events Check.
[[0;32m  OK  [0m] Stopped target Sockets.
[[0;32m  OK  [0m] Closed OpenBSD Secure Shell server socket.
[[0;32m  OK  [0m] Closed Syslog Socket.
[[0;32m  OK  [0m] Closed ACPID Listen Socket.
[[0;32m  OK  [0m] Closed D-Bus System Message Bus Socket.
[[0;32m  OK  [0m] Stopped target System Initialization.
         Stopping Network Time Synchronization...
         Stopping Load/Save Random Seed...
[[0;32m  OK  [0m] Stopped Apply Kernel Variables.
[[0;32m  OK  [0m] Stopped target Encrypted Volumes.
[[0;32m  OK  [0m] Stopped Forward Password Requests to Wall Directory Watch.
[[0;32m  OK  [0m] Stopped Dispatch Password Requests to Console Directory Watch.
         Stopping Update UTMP about System Boot/Shutdown...
[[0;32m  OK  [0m] Stopped Load Kernel Modules.
[[0;32m  OK  [0m] Stopped target Swap.
[[0;32m  OK  [0m] Stopped Network Time Synchronization.
[[0;32m  OK  [0m] Stopped Load/Save Random Seed.
[[0;32m  OK  [0m] Stopped Update UTMP about System Boot/Shutdown.
[[0;32m  OK  [0m] Stopped Create Volatile Files and Directories.
[[0;32m  OK  [0m] Stopped target Local File Systems.
         Unmounting /run/user/0...
[[0;32m  OK  [0m] Unmounted /run/user/0.
[[0;32m  OK  [0m] Reached target Unmount All Filesystems.
[[0;32m  OK  [0m] Stopped target Local File Systems (Pre).
[[0;32m  OK  [0m] Stopped Remount Root and Kernel File Systems.
[[0;32m  OK  [0m] Stopped Create Static Device Nodes in /dev.
[[0;32m  OK  [0m] Reached target Shutdown.
[   52.078440] systemd-journald[1740]: Received SIGTERM from PID 1 (systemd-shutdow).
[   52.115861] EXT4-fs (mmcblk0p2): re-mounted. Opts: data=ordered
[   52.125367] EXT4-fs (mmcblk0p2): re-mounted. Opts: data=ordered
[   52.143547] Console: switching to colour dummy device 80x25
[   52.244765] reboot: Power down
